…
## Example

This is a basic example which shows you how to read a Star-Oddi file
into R:

``` r
library(staroddi)
## basic example code
dst <- read_dst(system.file("demos/1M9380.DAT", package="staroddi"))
dst
#> # A tibble: 29,963 × 7
#>     .rid time                 temp depth dst_id audkenni   utgafa
#>  * <int> <dttm>              <dbl> <dbl> <chr>  <chr>       <int>
#>  1     1 2008-06-25 21:47:00  20.6 -1.27 1M9380 ISL.MILLI.      1
#>  2     2 2008-06-25 22:07:00  NA   -1.27 1M9380 ISL.MILLI.      1
#>  3     3 2008-06-25 22:27:00  NA   -1.27 1M9380 ISL.MILLI.      1
#>  4     4 2008-06-25 22:47:00  18.9 -1.27 1M9380 ISL.MILLI.      1
#>  5     5 2008-06-25 23:07:00  NA   -1.27 1M9380 ISL.MILLI.      1
#>  6     6 2008-06-25 23:27:00  NA   -1.27 1M9380 ISL.MILLI.      1
#>  7     7 2008-06-25 23:47:00  17.9 -1.27 1M9380 ISL.MILLI.      1
#>  8     8 2008-06-26 00:07:00  NA   -1.27 1M9380 ISL.MILLI.      1
#>  9     9 2008-06-26 00:27:00  NA   -1.27 1M9380 ISL.MILLI.      1
#> 10    10 2008-06-26 00:47:00  16.1 -1.04 1M9380 ISL.MILLI.      1
#> # … with 29,953 more rows
…
